{
  "jupyter.lab.setting-icon-class": "jp-GitLab-tablogo",
  "jupyter.lab.setting-icon-label": "GitLab",
  "title": "GitLab",
  "description": "Settings for the GitLab plugin.",
  "properties": {
    "userName": {
      "type": "string", "title": "User Name", "default": ""
    },
    "userCode": {
      "type": "string", "title": "User Code", "default": ""
    },
    "groupName": {
      "type": "string", "title": "Group Name", "default": ""
    }
  },
  "type": "object"
}
